…
EDAdata2%>%summarize(median_num_drivers=median(num_drivers,na.rm = T))

## # A tibble: 1 x 1
##   median_num_drivers
##                <dbl>
## 1               16.1

EDAdata2%>%group_by(state)%>%summarize(mean_UCL95.female=mean(UCL95.female,na.rm = T))

## # A tibble: 51 x 2
##    state                mean_UCL95.female
##    <chr>                            <dbl>
##  1 Alabama                           190.
##  2 Alaska                            269.
##  3 Arizona                           164.
##  4 Arkansas                          206.
##  5 California                        180.
##  6 Colorado                          199.
##  7 Connecticut                       172.
##  8 Delaware                          188.
##  9 District of Columbia              NaN 
## 10 Florida                           186.
## # … with 41 more rows
…
